…
```r
head(debt_raw, 50)
```

```
## # A tibble: 50 × 217
##    `DEBT (% of GDP)`   `1800`  `1801`  `1802`  `1803` `1804` `1805` `1806` `1807` `1808` `1809`
##    <chr>               <chr>   <chr>   <chr>   <chr>  <chr>  <chr>  <chr>  <chr>  <chr>  <chr> 
##  1 Afghanistan         no data no data no data no da… no da… no da… no da… no da… no da… no da…
##  2 Albania             no data no data no data no da… no da… no da… no da… no da… no da… no da…
##  3 Algeria             no data no data no data no da… no da… no da… no da… no da… no da… no da…
##  4 Angola              no data no data no data no da… no da… no da… no da… no da… no da… no da…
##  5 Anguilla            no data no data no data no da… no da… no da… no da… no da… no da… no da…
##  6 Antigua and Barbuda no data no data no data no da… no da… no da… no da… no da… no da… no da…
##  7 Argentina           no data no data no data no da… no da… no da… no da… no da… no da… no da…
##  8 Armenia             no data no data no data no da… no da… no da… no da… no da… no da… no da…
##  9 Australia           no data no data no data no da… no da… no da… no da… no da… no da… no da…
## 10 Austria             no data no data no data no da… no da… no da… no da… no da… no da… no da…
## # ℹ 40 more rows
## # ℹ 206 more variables: `1810` <chr>, `1811` <chr>, `1812` <chr>, `1813` <chr>, `1814` <chr>,
## #   `1815` <chr>, `1816` <chr>, `1817` <chr>, `1818` <chr>, `1819` <chr>, `1820` <chr>,
## #   `1821` <chr>, `1822` <chr>, `1823` <chr>, `1824` <chr>, `1825` <chr>, `1826` <chr>,
## #   `1827` <chr>, `1828` <chr>, `1829` <chr>, `1830` <chr>, `1831` <chr>, `1832` <chr>,
## #   `1833` <chr>, `1834` <chr>, `1835` <chr>, `1836` <chr>, `1837` <chr>, `1838` <chr>,
## #   `1839` <chr>, `1840` <chr>, `1841` <chr>, `1842` <chr>, `1843` <chr>, `1844` <chr>, …
```
…
#| label: tbl-missing-cols
#| tbl-cap: "The number of missing rows in each column"
#| warning: false
#| message: false
growth_raw |> 
  summarise(across(everything(), ~sum(is.na(.)))) |>
  pivot_longer(everything(), names_to = "variable", values_to = "missing_rows") |>
  mutate(prop_missing = missing_rows / nrow(growth_raw)) |>
  arrange(missing_rows)
```

```
## # A tibble: 66 × 3
##    variable       missing_rows prop_missing
##    <chr>                 <int>        <dbl>
##  1 Country Name              0       0     
##  2 Country Code              0       0     
##  3 Indicator Name            0       0     
##  4 Indicator Code            0       0     
##  5 2014                     11       0.0414
##  6 2015                     12       0.0451
##  7 2016                     12       0.0451
##  8 2017                     12       0.0451
##  9 2018                     12       0.0451
## 10 2009                     13       0.0489
## # ℹ 56 more rows
```
There are many missing data in the debt data set specially in the intial years.

```r
debt_raw |> 
  summarise(across(everything(), ~sum(is.na(.)))) |>
  pivot_longer(everything(), names_to = "variable", values_to = "missing_rows") |>
  mutate(prop_missing = missing_rows / nrow(debt_raw)) |>
  arrange(missing_rows)
```

```
## # A tibble: 217 × 3
##    variable        missing_rows prop_missing
##    <chr>                  <int>        <dbl>
##  1 DEBT (% of GDP)            0       0     
##  2 2006                       3       0.0155
##  3 2008                       3       0.0155
##  4 2009                       3       0.0155
##  5 2010                       3       0.0155
##  6 2012                       3       0.0155
##  7 2013                       3       0.0155
##  8 2014                       3       0.0155
##  9 2015                       3       0.0155
## 10 2007                       4       0.0206
## # ℹ 207 more rows
```
…
```
## Warning: There were 3 warnings in `mutate()`.
## The first warning was:
## ℹ In argument: `across(-country_name, as.numeric)`.
## Caused by warning:
## ! NAs introduced by coercion
## ℹ Run `dplyr::last_dplyr_warnings()` to see the 2 remaining warnings.
```

```r
growth_clean[growth_clean$country_name == "Australia", ]
```

```
## # A tibble: 65 × 3
##    country_name  year   GDP
##    <chr>        <int> <dbl>
##  1 Australia     1960 NA   
##  2 Australia     1961  2.48
##  3 Australia     1962  1.29
##  4 Australia     1963  6.21
##  5 Australia     1964  6.98
##  6 Australia     1965  5.98
##  7 Australia     1966  2.38
##  8 Australia     1967  6.30
##  9 Australia     1968  5.10
## 10 Australia     1969  7.04
## # ℹ 55 more rows
```
…
growth_filtered <- growth_filtered %>%
  filter(!is.na(year))
library(dplyr)

merged_data <- inner_join(
  debt_clean,
  growth_filtered,
  by = c("country_name", "year")
)
merged_data[merged_data$country_name == "Australia", ]
```

```
## # A tibble: 56 × 4
##    country_name  year debt_percent_gdp   GDP
##    <chr>        <int>            <dbl> <dbl>
##  1 Australia     1960             31.5 NA   
##  2 Australia     1961             30.3  2.48
##  3 Australia     1962             30.4  1.29
##  4 Australia     1963             29.3  6.21
##  5 Australia     1964             27.6  6.98
##  6 Australia     1965             NA    5.98
##  7 Australia     1966             41.2  2.38
##  8 Australia     1967             39.2  6.30
##  9 Australia     1968             38.2  5.10
## 10 Australia     1969             35.7  7.04
## # ℹ 46 more rows
```
